GeneralAnalysis
…
The brand name of the drugs for sale

The table below shows each brand name and its number of occurrences, and it can be observed that MONSTERLAB and HYDROGURU are the brands with the highest number of occurrences. These two brands are not specific to any particular drug, but rather the names of the dealers. It seems that they have generated a certain brand effect, representing a guarantee of high-quality drugs.

Code

data$BrandName <- toupper(data$BrandName) 
BrandName_Re_NA <- data$BrandName[!is.na(data$BrandName)] #remove NA
brand_counts <- as_tibble(table(BrandName_Re_NA))
colnames(brand_counts) <- c("BrandName", "Count")
brand_counts <- brand_counts %>% arrange(desc(Count))
brand_counts

# A tibble: 81 × 2
   BrandName     Count
   <chr>         <int>
 1 MONSTERLAB       21
 2 HYDROGURU        13
 3 CENFORCE          5
 4 BLUE PUNISHER     4
 5 KAMAGRA           4
 6 PFIZER            4
 7 VIDALISTA         4
 8 KETALAR           3
 9 MASERATI          3
10 PERCOCET          3
# ℹ 71 more rows
…
Grouped summary statistics: Calculate summary statistics for Vendors.

Code

group_Vendor <- data_RRS %>%
  group_by(Vendor_Name) %>%
  summarise(mean_rating = mean(Rating),
            total_reviews = sum(Reviews),
            total_sales = sum(Sales))
group_Vendor

# A tibble: 148 × 4
   Vendor_Name        mean_rating total_reviews total_sales
   <chr>                    <dbl>         <dbl>       <dbl>
 1 1hero                      4.9          1842        5787
 2 4free                      0               0           0
 3 AmphetamineCowboys         5               2           7
 4 AmsterdamExpress           4.1          2064        8910
 5 AskFrankUKXXX              4.9           178         337
 6 BMPLC                      4.9           112         156
 7 BSPLLC                     0               0           3
 8 Blacklist                  4.6          2448        3440
 9 BritishPablo               4.8          1862        5418
10 Bulkexpress                4.4            34          68
# ℹ 138 more rows
…
