GeneralAnalysis
…
The data frame consists of the top 20 drug names mentioned in posts. The “count” column represents the number of posts for each drug. It can partly indicate the popularity of each drug. Based on the counts, we can see that LSD (n=14), Heroin (n=9), Gorilla Glue (n=7), Racemic Ketamine (n=7), and Xanax (n=7) have relatively higher counts, suggesting a higher level of discussion or interest in these drugs.

The brand name of the drugs for sale

The table below shows each brand name and its number of occurrences, and it can be observed that MONSTERLAB and HYDROGURU are the brands with the highest number of occurrences. These two brands are not specific to any particular drug, but rather the names of the labs. It seems that they have generated a certain brand effect, representing a guarantee of high-quality drugs.

data$BrandName <- toupper(data$BrandName) 
BrandName_Re_NA <- data$BrandName[!is.na(data$BrandName)] #remove NA
brand_counts <- as_tibble(table(BrandName_Re_NA))
colnames(brand_counts) <- c("BrandName", "Count")
brand_counts <- brand_counts %>% arrange(desc(Count))
brand_counts

# A tibble: 81 × 2
   BrandName     Count
   <chr>         <int>
 1 MONSTERLAB       21
 2 HYDROGURU        13
 3 CENFORCE          5
 4 BLUE PUNISHER     4
 5 KAMAGRA           4
 6 PFIZER            4
 7 VIDALISTA         4
 8 KETALAR           3
 9 MASERATI          3
10 PERCOCET          3
# ℹ 71 more rows
…
UPS

Worldwide RMS/EMS

Rating, Reviews and Sales

#Get the Rating number from strings
data$Rating <- data$Rating %>% 
  str_extract("\\d+(\\.\\d+)?") %>% 
  as.numeric()
#Select the columns that we need
data_RRS <- data %>% select(DrugName,Drug_Type,Vendor_Name, Rating,Reviews,Sales)
data_RRS %>% filter(Sales==0)

# A tibble: 127 × 6
   DrugName               Drug_Type             Vendor_Name Rating Reviews Sales
   <chr>                  <chr>                 <chr>        <dbl>   <dbl> <dbl>
 1 RACEMIC KETAMINE       Dissociatives  » Ket… commission…      0       0     0
 2 NEEDLE KETAMINE        Dissociatives  » Ket… cocainecar…      0       0     0
 3 LIDOCAINE              Stimulants  » Lidoca… TreasureCr…      0       0     0
 4 SGT-263                Cannabis  » Syntheti… TreasureCr…      0       0     0
 5 4-MEO-PCP              Dissociatives  » Met… TreasureCr…      0       0     0
 6 METHOXPROPAMINE        Dissociatives  » Met… TreasureCr…      0       0     0
 7 MOTHOXPROPAMINE        Dissociatives  » Met… TreasureCr…      0       0     0
 8 RACEMIC KETAMINE       Dissociatives  » Ket… commission…      0       0     0
 9 METHAMPHETAMINE (METH) Stimulants  » Metham… TreasureCr…      0       0     0
10 OXYCODONE              Opioids  » Oxycodone  STUNNAGANG       0       0     0
# ℹ 117 more rows
…
