TF_IDF_Nemesis_Market
…
Sort the results by TF-IDF score in descending order and select the top 15 words for each group

word_top15 <- word_tf_idf %>% 
  group_by(Drug_Type_L) %>% 
  arrange(desc(tf_idf)) %>% 
  top_n(15,tf_idf) %>% 
  ungroup()

Preview the top 15 words for each group

word_top15

# A tibble: 158 × 6
   Drug_Type_L   word          n      tf   idf tf_idf
   <chr>         <chr>     <int>   <dbl> <dbl>  <dbl>
 1 Steroids      steroids    127 0.00910 2.20  0.0200
 2 Dissociatives ketamine    220 0.0312  0.588 0.0183
 3 Cannabis      strain      309 0.0113  1.50  0.0170
 4 Psychedelics  nbome        40 0.00725 2.20  0.0159
 5 Cannabis      sativa      177 0.00648 2.20  0.0142
 6 Steroids      steroid      89 0.00638 2.20  0.0140
 7 Steroids      oras         87 0.00624 2.20  0.0137
 8 Opioids       oxycodone    25 0.00565 2.20  0.0124
 9 Cannabis      haze        207 0.00758 1.50  0.0114
10 Cannabis      indica      128 0.00469 2.20  0.0103
# ℹ 148 more rows
…
The tibble of bigrams:

content_bigrams

# A tibble: 35,489 × 3
   Drug_Type_L bigram           n
   <chr>       <chr>        <int>
 1 Cannabis    amnesia haze   130
 2 Cannabis    is a           123
 3 Steroids    if you         111
 4 Cannabis    this strain     96
 5 Cannabis    with a          81
 6 Cannabis    of the          79
 7 Cannabis    it is           76
 8 Steroids    we are          71
 9 Stimulants  hih quaity      63
10 Cannabis    in the          61
# ℹ 35,479 more rows
…
Code

bigrams_separated <- content_bigrams %>%
  separate(bigram, c("word1", "word2"), sep = " ")

bigrams_filtered <- bigrams_separated %>%
  filter(!word1 %in% stop_words$word & word1 != "" & word1 != ".") %>%
  filter(!word2 %in% stop_words$word & word2 != "" & word2 != ".") 

So, if we want to know which words are commonly connected to aroma, we can simply add the code like this:

bigrams_filtered %>% filter(word1 == "aroma" | word2 == "aroma")

# A tibble: 22 × 4
   Drug_Type_L word1  word2              n
   <chr>       <chr>  <chr>          <int>
 1 Cannabis    aroma  favor              5
 2 Cannabis    haze   aroma              5
 3 Cannabis    review aroma              5
 4 Cannabis    aroma  takes              4
 5 Cannabis    stron  aroma              4
 6 Cannabis    emony  aroma              3
 7 Cannabis    amazin aroma              2
 8 Cannabis    citrus aroma              2
 9 Cannabis    aroma  characteristic     1
10 Cannabis    aroma  durin              1
# ℹ 12 more rows
…
Please note: due to the small sample size, it does not work well. However, if we can use this method to analyse the data from Cambridge, it could be useful.

The other reason why I think bigrams are very important is that they can provide useful context in sentiment analysis. For example,

bigrams_separated %>% filter(word1 == "not") %>% count(word1, word2, sort = TRUE)

# A tibble: 105 × 3
   word1 word2        n
   <chr> <chr>    <int>
 1 not   be           8
 2 not   arrive       4
 3 not   eiibe        4
 4 not   et           4
 5 not   in           4
 6 not   ony          4
 7 not   as           3
 8 not   for          3
 9 not   hesitate     3
10 not   respond      3
# ℹ 95 more rows
…
